[
 {
  "code": "13098602",
  "name": "Marlobobo Onto The Next World",
  "selection": "tu",
  "price": 369.9,
  "link": "https://www.vinmonopolet.no/_/p/13098602",
  "category": "Mjød",
  "country": "Norge",
  "volume": 375,
  "abv": 12,
  "bid": 4329399,
  "rating": 4.438,
  "ratingCount": 25,
  "style": "Mead - Melomel",
  "untappdBrewery": "Marlobobo",
  "untappdName": "Onto the Next World (2020)"
 },
 {
  "code": "13193302",
  "name": "Marlobobo Ghost Kernel",
  "selection": "tu",
  "price": 369.9,
  "link": "https://www.vinmonopolet.no/_/p/13193302",
  "category": "Mjød",
  "country": "Norge",
  "volume": 375,
  "abv": 12,
  "bid": 4332770,
  "rating": 4.55179,
  "ratingCount": 28,
  "style": "Mead - Melomel",
  "untappdBrewery": "Marlobobo",
  "untappdName": "Ghost Kernel (2020)"
 },
 {
  "code": "13193402",
  "name": "Marlobobo Smorph",
  "selection": "tu",
  "price": 369.9,
  "link": "https://www.vinmonopolet.no/_/p/13193402",
  "category": "Mjød",
  "country": "Norge",
  "volume": 375,
  "abv": 12,
  "bid": 4332747,
  "rating": 4.48077,
  "ratingCount": 26,
  "style": "Mead - Melomel",
  "untappdBrewery": "Marlobobo",
  "untappdName": "SMORPH (2020)"
 },
 {
  "code": "13232102",
  "name": "Marlobobo Bling Pie",
  "selection": "tu",
  "price": 299.9,
  "link": "https://www.vinmonopolet.no/_/p/13232102",
  "category": "Mjød",
  "country": "Norge",
  "volume": 375,
  "abv": 14,
  "bid": 4332885,
  "rating": 4.13684,
  "ratingCount": 19,
  "style": "Mead - Melomel",
  "untappdBrewery": "Marlobobo",
  "untappdName": "Bling Pie (2020)"
 },
 {
  "code": "13191102",
  "name": "Malmö Meadery We are Late, Honey",
  "selection": "tu",
  "price": 94.9,
  "link": "https://www.vinmonopolet.no/_/p/13191102",
  "category": "Mjød",
  "country": "Sverige",
  "volume": 330,
  "abv": 6,
  "bid": 3019212,
  "rating": 3.99167,
  "ratingCount": 1842,
  "style": "Mead - Melomel",
  "untappdBrewery": "Malmö Meadery",
  "untappdName": "We Are Late, Honey"
 },
 {
  "code": "13191202",
  "name": "Malmö Meadery True Love Never Dies, Honey",
  "selection": "tu",
  "price": 94.9,
  "link": "https://www.vinmonopolet.no/_/p/13191202",
  "category": "Mjød",
  "country": "Sverige",
  "volume": 330,
  "abv": 6,
  "bid": 4240153,
  "rating": 3.85909,
  "ratingCount": 22,
  "style": "Mead - Melomel",
  "untappdBrewery": "Malmö Meadery",
  "untappdName": "True Love Never Dies, Honey"
 },
 {
  "code": "13191402",
  "name": "Malmö Meadery Cosmeadpolitan, Honey",
  "selection": "tu",
  "price": 94.9,
  "link": "https://www.vinmonopolet.no/_/p/13191402",
  "category": "Mjød",
  "country": "Sverige",
  "volume": 330,
  "abv": 6,
  "bid": 3123298,
  "rating": 3.86893,
  "ratingCount": 692,
  "style": "Mead - Melomel",
  "untappdBrewery": "Malmö Meadery",
  "untappdName": "Cosmeadpolitan, Honey!"
 },
 {
  "code": "13186102",
  "name": "Schramm's Honeyberry Mead",
  "selection": "tu",
  "price": 589.9,
  "link": "https://www.vinmonopolet.no/_/p/13186102",
  "category": "Mjød",
  "country": "USA",
  "volume": 375,
  "abv": 14,
  "bid": 3081557,
  "rating": 4.42782,
  "ratingCount": 142,
  "style": "Mead - Melomel",
  "untappdBrewery": "Schramm's Mead",
  "untappdName": "Honeyberry"
 },
 {
  "code": "13186002",
  "name": "Schramm's Erik The Red Cherry Raspberry Mead",
  "selection": "tu",
  "price": 499.9,
  "link": "https://www.vinmonopolet.no/_/p/13186002",
  "category": "Mjød",
  "country": "USA",
  "volume": 375,
  "abv": 14,
  "bid": 519902,
  "rating": 4.48057,
  "ratingCount": 1189,
  "style": "Mead - Melomel",
  "untappdBrewery": "Schramm's Mead",
  "untappdName": "Erik the Red"
 },
 {
  "code": "13185802",
  "name": "Schramm's Red Agnes Red Currant Mead",
  "selection": "tu",
  "price": 479.9,
  "link": "https://www.vinmonopolet.no/_/p/13185802",
  "category": "Mjød",
  "country": "USA",
  "volume": 375,
  "abv": 14,
  "bid": 1400059,
  "rating": 4.59635,
  "ratingCount": 4513,
  "style": "Mead - Melomel",
  "untappdBrewery": "Schramm's Mead",
  "untappdName": "Red Agnes"
 },
 {
  "code": "13241202",
  "name": "Mikkeller Super Cool Neipa",
  "selection": "tu",
  "price": 109.6,
  "link": "https://www.vinmonopolet.no/_/p/13241202",
  "category": "India pale ale",
  "country": "Danmark",
  "volume": 440,
  "abv": 8.5,
  "bid": 4317857,
  "rating": 3.93203,
  "ratingCount": 690,
  "style": "IPA - Imperial / Double New England",
  "untappdBrewery": "Mikkeller",
  "untappdName": "Super Cool"
 },
 {
  "code": "13210202",
  "name": "Dry & Bitter Ampersand: Idaho 7 DDH IPA",
  "selection": "tu",
  "price": 88.9,
  "link": "https://www.vinmonopolet.no/_/p/13210202",
  "category": "India pale ale",
  "country": "Danmark",
  "volume": 440,
  "abv": 6.5,
  "bid": 4242940,
  "rating": 3.86039,
  "ratingCount": 207,
  "style": "IPA - New England",
  "untappdBrewery": "Dry & Bitter Brewing Company",
  "untappdName": "Ampersand: Idaho 7"
 },
 {
  "code": "13210302",
  "name": "Dry & Bitter Ampersand: Strata DDH IPA",
  "selection": "tu",
  "price": 88.9,
  "link": "https://www.vinmonopolet.no/_/p/13210302",
  "category": "India pale ale",
  "country": "Danmark",
  "volume": 440,
  "abv": 6.5,
  "bid": 4242952,
  "rating": 4.06541,
  "ratingCount": 357,
  "style": "IPA - New England",
  "untappdBrewery": "Dry & Bitter Brewing Company",
  "untappdName": "Ampersand: Strata"
 },
 {
  "code": "13184902",
  "name": "Verdant Bigger Pigs DIPA",
  "selection": "tu",
  "price": 129.9,
  "link": "https://www.vinmonopolet.no/_/p/13184902",
  "category": "India pale ale",
  "country": "England",
  "volume": 440,
  "abv": 8,
  "bid": 4309903,
  "rating": 4,
  "ratingCount": 321,
  "style": "IPA - Imperial / Double",
  "untappdBrewery": "Verdant Brewing Co",
  "untappdName": "Bigger Pigs"
 },
 {
  "code": "13214902",
  "name": "Verdant Fruit Car Sight Exhibition DIPA",
  "selection": "tu",
  "price": 129.9,
  "link": "https://www.vinmonopolet.no/_/p/13214902",
  "category": "India pale ale",
  "country": "England",
  "volume": 440,
  "abv": 8,
  "bid": 2554602,
  "rating": 4.30354,
  "ratingCount": 10912,
  "style": "IPA - Imperial / Double New England",
  "untappdBrewery": "Verdant Brewing Co",
  "untappdName": "Fruit, Car, Sight, Exhibition"
 },
 {
  "code": "13184802",
  "name": "Verdant x Crak Unplanned Alignment IPA",
  "selection": "tu",
  "price": 114.9,
  "link": "https://www.vinmonopolet.no/_/p/13184802",
  "category": "India pale ale",
  "country": "England",
  "volume": 440,
  "abv": 7,
  "bid": 4296557,
  "rating": 4.11071,
  "ratingCount": 957,
  "style": "IPA - New England",
  "untappdBrewery": "Verdant Brewing Co",
  "untappdName": "Unplanned Alignment"
 },
 {
  "code": "13184302",
  "name": "Gipsy Hill Big Baller TIPA",
  "selection": "tu",
  "price": 119.9,
  "link": "https://www.vinmonopolet.no/_/p/13184302",
  "category": "India pale ale",
  "country": "England",
  "volume": 440,
  "abv": 11.3,
  "bid": 4286817,
  "rating": 3.91147,
  "ratingCount": 292,
  "style": "IPA - Triple New England",
  "untappdBrewery": "The Gipsy Hill Brewing Co.",
  "untappdName": "Big Baller"
 },
 {
  "code": "13184602",
  "name": "Gipsy Hill Huddle Employee Owned IPA",
  "selection": "tu",
  "price": 89.9,
  "link": "https://www.vinmonopolet.no/_/p/13184602",
  "category": "India pale ale",
  "country": "England",
  "volume": 440,
  "abv": 6.8,
  "bid": 4287285,
  "rating": 3.91237,
  "ratingCount": 291,
  "style": "IPA - New England",
  "untappdBrewery": "The Gipsy Hill Brewing Co.",
  "untappdName": "Huddle - Employee Owned IPA"
 },
 {
  "code": "13195402",
  "name": "Brew York The Consultant Drop Project Collab",
  "selection": "tu",
  "price": 132.5,
  "link": "https://www.vinmonopolet.no/_/p/13195402",
  "category": "India pale ale",
  "country": "England",
  "volume": 440,
  "abv": 7.5,
  "bid": 4243027,
  "rating": 3.85135,
  "ratingCount": 741,
  "style": "IPA - New England",
  "untappdBrewery": "Brew York",
  "untappdName": "The Consultant"
 },
 {
  "code": "13184102",
  "name": "Wylam Revenge of The Sticky Bud DIPA",
  "selection": "tu",
  "price": 129.9,
  "link": "https://www.vinmonopolet.no/_/p/13184102",
  "category": "India pale ale",
  "country": "England",
  "volume": 440,
  "abv": 8.7,
  "bid": 4260602,
  "rating": 4.24946,
  "ratingCount": 1119,
  "style": "IPA - Imperial / Double",
  "untappdBrewery": "Wylam",
  "untappdName": "Revenge of the Sticky Bud"
 },
 {
  "code": "13126302",
  "name": "Brew York When Lemons Give You Life IPA Extra Vanilla Edition",
  "selection": "tu",
  "price": 123.9,
  "link": "https://www.vinmonopolet.no/_/p/13126302",
  "category": "India pale ale",
  "country": "England",
  "volume": 440,
  "abv": 6,
  "bid": 4192118,
  "rating": 3.98188,
  "ratingCount": 149,
  "style": "IPA - Milkshake",
  "untappdBrewery": "Brew York",
  "untappdName": "When Lemons Give You Life Extra Vanilla Edition"
 },
 {
  "code": "13184002",
  "name": "Wylam Pay No Heed To The Drogos Southern Hemisphere IPA",
  "selection": "tu",
  "price": 119.9,
  "link": "https://www.vinmonopolet.no/_/p/13184002",
  "category": "India pale ale",
  "country": "England",
  "volume": 440,
  "abv": 7.2,
  "bid": 4265989,
  "rating": 4.2383,
  "ratingCount": 624,
  "style": "IPA - International",
  "untappdBrewery": "Wylam",
  "untappdName": "Pay No Heed To the Drongos"
 },
 {
  "code": "13196502",
  "name": "Wander Beyond Imperial French Martini",
  "selection": "tu",
  "price": 119.9,
  "link": "https://www.vinmonopolet.no/_/p/13196502",
  "category": "India pale ale",
  "country": "England",
  "volume": 440,
  "abv": 12,
  "bid": 2850333,
  "rating": 3.82396,
  "ratingCount": 766,
  "style": "IPA - Milkshake",
  "untappdBrewery": "Wander Beyond Brewing",
  "untappdName": "French Martini"
 },
 {
  "code": "13209902",
  "name": "Pomona Island 1952 Vincent Black Lightning DIPA",
  "selection": "tu",
  "price": 119.9,
  "link": "https://www.vinmonopolet.no/_/p/13209902",
  "category": "India pale ale",
  "country": "England",
  "volume": 440,
  "abv": 8.5,
  "bid": 3853867,
  "rating": 4.25086,
  "ratingCount": 930,
  "style": "IPA - Imperial / Double",
  "untappdBrewery": "Pomona Island Brew Co.",
  "untappdName": "1952 Vincent Black Lightning"
 },
 {
  "code": "13098302",
  "name": "Alpha Delta Helios DIPA",
  "selection": "tu",
  "price": 115.9,
  "link": "https://www.vinmonopolet.no/_/p/13098302",
  "category": "India pale ale",
  "country": "England",
  "volume": 440,
  "abv": 8.5,
  "bid": 4253457,
  "rating": 4.24231,
  "ratingCount": 13,
  "style": "IPA - Imperial / Double",
  "untappdBrewery": "Alpha Delta Brewing",
  "untappdName": "Helios"
 },
 {
  "code": "13196702",
  "name": "Wander Beyond Halcyon Daze",
  "selection": "tu",
  "price": 114.9,
  "link": "https://www.vinmonopolet.no/_/p/13196702",
  "category": "India pale ale",
  "country": "England",
  "volume": 440,
  "abv": 10,
  "bid": 4243972,
  "rating": 4.22045,
  "ratingCount": 154,
  "style": "IPA - Imperial / Double",
  "untappdBrewery": "Wander Beyond Brewing",
  "untappdName": "Halcyon Daze"
 },
 {
  "code": "13210502",
  "name": "Full Circle x Campervan Brewery Callisto DIPA",
  "selection": "tu",
  "price": 114.9,
  "link": "https://www.vinmonopolet.no/_/p/13210502",
  "category": "India pale ale",
  "country": "England",
  "volume": 440,
  "abv": 8.3,
  "bid": 4213692,
  "rating": 4.02904,
  "ratingCount": 508,
  "style": "IPA - Imperial / Double",
  "untappdBrewery": "Full Circle Brew Co",
  "untappdName": "Callisto"
 },
 {
  "code": "13098202",
  "name": "Alpha Delta Vesta Spectrum NEIPA",
  "selection": "tu",
  "price": 113,
  "link": "https://www.vinmonopolet.no/_/p/13098202",
  "category": "India pale ale",
  "country": "England",
  "volume": 440,
  "abv": 6.8,
  "bid": 4227729,
  "rating": 3.74574,
  "ratingCount": 129,
  "style": "IPA - New England",
  "untappdBrewery": "Alpha Delta Brewing",
  "untappdName": "Vesta"
 },
 {
  "code": "13210402",
  "name": "Full Circle x S43 Zebra Head West Coast IPA",
  "selection": "tu",
  "price": 109.9,
  "link": "https://www.vinmonopolet.no/_/p/13210402",
  "category": "India pale ale",
  "country": "England",
  "volume": 440,
  "abv": 7.2,
  "bid": 4256952,
  "rating": 3.94047,
  "ratingCount": 257,
  "style": "IPA - American",
  "untappdBrewery": "Full Circle Brew Co",
  "untappdName": "Zebra Head"
 },
 {
  "code": "13210602",
  "name": "Full Circle Third Dimention NEIPA",
  "selection": "tu",
  "price": 109.9,
  "link": "https://www.vinmonopolet.no/_/p/13210602",
  "category": "India pale ale",
  "country": "England",
  "volume": 440,
  "abv": 6.8,
  "bid": 4311975,
  "rating": 4.04382,
  "ratingCount": 89,
  "style": "IPA - New England",
  "untappdBrewery": "Full Circle Brew Co",
  "untappdName": "Third Dimension"
 },
 {
  "code": "13237102",
  "name": "Burnt Mill Aries Neipa",
  "selection": "tu",
  "price": 109.9,
  "link": "https://www.vinmonopolet.no/_/p/13237102",
  "category": "India pale ale",
  "country": "England",
  "volume": 440,
  "abv": 6.4,
  "bid": 4244924,
  "rating": 4.05515,
  "ratingCount": 291,
  "style": "IPA - New England",
  "untappdBrewery": "Burnt Mill Brewery",
  "untappdName": "Aries w/ Citra, Cashmere, Mosiac and Idaho-7"
 },
 {
  "code": "13242902",
  "name": "Pomona Island 50 eggs IPA",
  "selection": "tu",
  "price": 109.9,
  "link": "https://www.vinmonopolet.no/_/p/13242902",
  "category": "India pale ale",
  "country": "England",
  "volume": 440,
  "abv": 6.8,
  "bid": 3884155,
  "rating": 4.0318,
  "ratingCount": 1975,
  "style": "IPA - New England",
  "untappdBrewery": "Pomona Island Brew Co.",
  "untappdName": "50 Eggs"
 },
 {
  "code": "13182902",
  "name": "Track Broken Clouds DIPA",
  "selection": "tu",
  "price": 108.4,
  "link": "https://www.vinmonopolet.no/_/p/13182902",
  "category": "India pale ale",
  "country": "England",
  "volume": 440,
  "abv": 8.5,
  "bid": 4299538,
  "rating": 4.37592,
  "ratingCount": 596,
  "style": "IPA - Imperial / Double Milkshake",
  "untappdBrewery": "Track Brewing Company",
  "untappdName": "Broken Clouds"
 },
 {
  "code": "13138002",
  "name": "Alpha Delta Enyo New World IPA",
  "selection": "tu",
  "price": 107.9,
  "link": "https://www.vinmonopolet.no/_/p/13138002",
  "category": "India pale ale",
  "country": "England",
  "volume": 440,
  "abv": 7.5,
  "bid": 4336094,
  "rating": 0,
  "ratingCount": 7,
  "style": "IPA - American",
  "untappdBrewery": "Alpha Delta Brewing",
  "untappdName": "Enyo NW IPA"
 },
 {
  "code": "13183002",
  "name": "Track Journeys to the daylight DIPA",
  "selection": "tu",
  "price": 106.2,
  "link": "https://www.vinmonopolet.no/_/p/13183002",
  "category": "India pale ale",
  "country": "England",
  "volume": 440,
  "abv": 8,
  "bid": 4310219,
  "rating": 4.28424,
  "ratingCount": 295,
  "style": "IPA - Imperial / Double New England",
  "untappdBrewery": "Track Brewing Company",
  "untappdName": "Journeys To the Daylight"
 },
 {
  "code": "13230302",
  "name": "Pentrich Heavy Metal Jacket DIPA",
  "selection": "tu",
  "price": 106,
  "link": "https://www.vinmonopolet.no/_/p/13230302",
  "category": "India pale ale",
  "country": "England",
  "volume": 440,
  "abv": 8.5,
  "bid": 4263966,
  "rating": 4.25133,
  "ratingCount": 413,
  "style": "IPA - Imperial / Double",
  "untappdBrewery": "Pentrich Brewing Co.",
  "untappdName": "Heavy Metal Jacket"
 },
 {
  "code": "13196602",
  "name": "Wander Beyond Illicium",
  "selection": "tu",
  "price": 104.9,
  "link": "https://www.vinmonopolet.no/_/p/13196602",
  "category": "India pale ale",
  "country": "England",
  "volume": 440,
  "abv": 10,
  "bid": 2606720,
  "rating": 4.14457,
  "ratingCount": 3030,
  "style": "IPA - Imperial / Double Milkshake",
  "untappdBrewery": "Wander Beyond Brewing",
  "untappdName": "Illicium"
 },
 {
  "code": "13194202",
  "name": "Northern Monk Divine Faith Double IPA",
  "selection": "tu",
  "price": 101.9,
  "link": "https://www.vinmonopolet.no/_/p/13194202",
  "category": "India pale ale",
  "country": "England",
  "volume": 440,
  "abv": 8.4,
  "bid": 4285619,
  "rating": 4.18963,
  "ratingCount": 1379,
  "style": "IPA - Imperial / Double",
  "untappdBrewery": "Northern Monk",
  "untappdName": "Divine Faith"
 },
 {
  "code": "13177402",
  "name": "North x Mad Scientist Eclipse DIPA",
  "selection": "tu",
  "price": 101.4,
  "link": "https://www.vinmonopolet.no/_/p/13177402",
  "category": "India pale ale",
  "country": "England",
  "volume": 440,
  "abv": 8,
  "bid": 4317472,
  "rating": 4.03819,
  "ratingCount": 237,
  "style": "IPA - Imperial / Double New England",
  "untappdBrewery": "North Brewing Co.",
  "untappdName": "North X Mad Scientist Eclipse DIPA"
 },
 {
  "code": "13230502",
  "name": "Pentrich Mark It Zero West Coast DIPA",
  "selection": "tu",
  "price": 100.1,
  "link": "https://www.vinmonopolet.no/_/p/13230502",
  "category": "India pale ale",
  "country": "England",
  "volume": 440,
  "abv": 8,
  "bid": 4263965,
  "rating": 3.91186,
  "ratingCount": 291,
  "style": "IPA - Imperial / Double",
  "untappdBrewery": "Pentrich Brewing Co.",
  "untappdName": "Mark It Zero"
 },
 {
  "code": "11813002",
  "name": "Verdant Even Sharks Need Water IPA",
  "selection": "tu",
  "price": 99.9,
  "link": "https://www.vinmonopolet.no/_/p/11813002",
  "category": "India pale ale",
  "country": "England",
  "volume": 440,
  "abv": 6.5,
  "bid": 1762006,
  "rating": 4.11582,
  "ratingCount": 15757,
  "style": "IPA - New England",
  "untappdBrewery": "Verdant Brewing Co",
  "untappdName": "Even Sharks Need Water"
 },
 {
  "code": "13183102",
  "name": "Track More than Myself IPA",
  "selection": "tu",
  "price": 93.7,
  "link": "https://www.vinmonopolet.no/_/p/13183102",
  "category": "India pale ale",
  "country": "England",
  "volume": 440,
  "abv": 6.5,
  "bid": 4329675,
  "rating": 3.85699,
  "ratingCount": 93,
  "style": "IPA - New England",
  "untappdBrewery": "Track Brewing Company",
  "untappdName": "More Than Myself"
 },
 {
  "code": "13096102",
  "name": "Northern Monk x Drew Millward Mangoes on With Faith Mango Pale Ale",
  "selection": "tu",
  "price": 81.9,
  "link": "https://www.vinmonopolet.no/_/p/13096102",
  "category": "India pale ale",
  "country": "England",
  "volume": 440,
  "abv": 5.4,
  "bid": 4227160,
  "rating": 3.62016,
  "ratingCount": 1384,
  "style": "Pale Ale - New England",
  "untappdBrewery": "Northern Monk",
  "untappdName": "Mangoes On With Faith"
 },
 {
  "code": "13244802",
  "name": "The Kernel India pale ale Centennial",
  "selection": "tu",
  "price": 70,
  "link": "https://www.vinmonopolet.no/_/p/13244802",
  "category": "India pale ale",
  "country": "England",
  "volume": 330,
  "abv": 7.2,
  "bid": 335677,
  "rating": 3.95414,
  "ratingCount": 6989,
  "style": "IPA - American",
  "untappdBrewery": "The Kernel Brewery",
  "untappdName": "India Pale Ale Mosaic"
 },
 {
  "code": "13244902",
  "name": "The Kernel India pale ale Galaxy",
  "selection": "tu",
  "price": 69,
  "link": "https://www.vinmonopolet.no/_/p/13244902",
  "category": "India pale ale",
  "country": "England",
  "volume": 330,
  "abv": 6.7,
  "bid": 1705557,
  "rating": 3.92529,
  "ratingCount": 781,
  "style": "IPA - American",
  "untappdBrewery": "The Kernel Brewery",
  "untappdName": "India Pale Ale Citra Summit"
 },
 {
  "code": "13209302",
  "name": "The Piggy Manifesto TIPA",
  "selection": "tu",
  "price": 109.9,
  "link": "https://www.vinmonopolet.no/_/p/13209302",
  "category": "India pale ale",
  "country": "Frankrike",
  "volume": 440,
  "abv": 10,
  "bid": 4299271,
  "rating": 4.22174,
  "ratingCount": 161,
  "style": "IPA - Triple New England",
  "untappdBrewery": "The Piggy Brewing Company",
  "untappdName": "Manifesto"
 },
 {
  "code": "13209402",
  "name": "The Piggy Fruit Basket IPA",
  "selection": "tu",
  "price": 79.9,
  "link": "https://www.vinmonopolet.no/_/p/13209402",
  "category": "India pale ale",
  "country": "Frankrike",
  "volume": 440,
  "abv": 5,
  "bid": 1760833,
  "rating": 3.74389,
  "ratingCount": 499,
  "style": "IPA - Session / India Session Ale",
  "untappdBrewery": "The Piggy Brewing Company",
  "untappdName": "Fruit Basket"
 },
 {
  "code": "13281802",
  "name": "Seven Island x Thinman x Fraugruber Strain Of Fate TIPA",
  "selection": "tu",
  "price": 119.9,
  "link": "https://www.vinmonopolet.no/_/p/13281802",
  "category": "India pale ale",
  "country": "Hellas",
  "volume": 440,
  "abv": 9.2,
  "bid": 4313173,
  "rating": 4.19346,
  "ratingCount": 153,
  "style": "IPA - Triple",
  "untappdBrewery": "FrauGruber Brewing",
  "untappdName": "Strain of Fate"
 },
 {
  "code": "13281202",
  "name": "Seven Island King Cyborg DDH NEIPA",
  "selection": "tu",
  "price": 109.9,
  "link": "https://www.vinmonopolet.no/_/p/13281202",
  "category": "India pale ale",
  "country": "Hellas",
  "volume": 440,
  "abv": 8.2,
  "bid": 4328428,
  "rating": 4.38429,
  "ratingCount": 35,
  "style": "IPA - Imperial / Double New England",
  "untappdBrewery": "Seven Island Brewery",
  "untappdName": "KING CYBORG"
 },
 {
  "code": "13281302",
  "name": "Seven Island Spellbound DDH NEIPA",
  "selection": "tu",
  "price": 109.9,
  "link": "https://www.vinmonopolet.no/_/p/13281302",
  "category": "India pale ale",
  "country": "Hellas",
  "volume": 440,
  "abv": 8.3,
  "bid": 4328431,
  "rating": 4.28958,
  "ratingCount": 24,
  "style": "IPA - Imperial / Double New England",
  "untappdBrewery": "Seven Island Brewery",
  "untappdName": "SPELLBOUND"
 },
 {
  "code": "13244502",
  "name": "Dot Brew Calling All DIPA",
  "selection": "tu",
  "price": 97.7,
  "link": "https://www.vinmonopolet.no/_/p/13244502",
  "category": "India pale ale",
  "country": "Irland",
  "volume": 440,
  "abv": 8,
  "bid": 4352865,
  "rating": 0,
  "ratingCount": 1,
  "style": "IPA - Imperial / Double",
  "untappdBrewery": "DOT Brew",
  "untappdName": "Calling All"
 },
 {
  "code": "11670602",
  "name": "Bådin Mistfjorden DDH IPA",
  "selection": "tu",
  "price": 69.8,
  "link": "https://www.vinmonopolet.no/_/p/11670602",
  "category": "India pale ale",
  "country": "Norge",
  "volume": 330,
  "abv": 6.7,
  "bid": 4158870,
  "rating": 3.7484,
  "ratingCount": 250,
  "style": "IPA - New England",
  "untappdBrewery": "Bådin",
  "untappdName": "Mistfjorden V5 - Citra & Centennial"
 },
 {
  "code": "12940202",
  "name": "Raus Hubro New England IPA",
  "selection": "tu",
  "price": 64.8,
  "link": "https://www.vinmonopolet.no/_/p/12940202",
  "category": "India pale ale",
  "country": "Norge",
  "volume": 330,
  "abv": 6.5,
  "bid": 4280624,
  "rating": 0,
  "ratingCount": 0,
  "style": "IPA - New England",
  "untappdBrewery": "RAUS Bryggeri",
  "untappdName": "Hubro"
 },
 {
  "code": "12940302",
  "name": "Raus Skog DDH IPA",
  "selection": "tu",
  "price": 64.8,
  "link": "https://www.vinmonopolet.no/_/p/12940302",
  "category": "India pale ale",
  "country": "Norge",
  "volume": 330,
  "abv": 6.5,
  "bid": 4280626,
  "rating": 0,
  "ratingCount": 0,
  "style": "IPA - New England",
  "untappdBrewery": "RAUS Bryggeri",
  "untappdName": "Skog"
 },
 {
  "code": "13239602",
  "name": "Lervig Modern Antique West Coast IPA",
  "selection": "tu",
  "price": 86,
  "link": "https://www.vinmonopolet.no/_/p/13239602",
  "category": "India pale ale",
  "country": "Norge",
  "volume": 500,
  "abv": 7,
  "bid": 4300770,
  "rating": 3.83178,
  "ratingCount": 354,
  "style": "IPA - American",
  "untappdBrewery": "LERVIG",
  "untappdName": "Modern Antique"
 },
 {
  "code": "13175102",
  "name": "Rygr Hedning Hopbatch #666 DDH NEIPA",
  "selection": "tu",
  "price": 83.9,
  "link": "https://www.vinmonopolet.no/_/p/13175102",
  "category": "India pale ale",
  "country": "Norge",
  "volume": 330,
  "abv": 8
 },
 {
  "code": "13175202",
  "name": "Rygr Yggdrasil Hopbatch #5 DDH NEIPA",
  "selection": "tu",
  "price": 83.9,
  "link": "https://www.vinmonopolet.no/_/p/13175202",
  "category": "India pale ale",
  "country": "Norge",
  "volume": 330,
  "abv": 8,
  "bid": 4345117,
  "rating": 4.19111,
  "ratingCount": 90,
  "style": "IPA - New England",
  "untappdBrewery": "RYGR Brygghús",
  "untappdName": "Yggdrasil Hopbatch #5"
 },
 {
  "code": "13237602",
  "name": "Skudenes Storm Neipa",
  "selection": "tu",
  "price": 79.2,
  "link": "https://www.vinmonopolet.no/_/p/13237602",
  "category": "India pale ale",
  "country": "Norge",
  "volume": 330,
  "abv": 8
 },
 {
  "code": "13239502",
  "name": "Lervig Super Fluff NEIPA",
  "selection": "tu",
  "price": 78.9,
  "link": "https://www.vinmonopolet.no/_/p/13239502",
  "category": "India pale ale",
  "country": "Norge",
  "volume": 500,
  "abv": 6.6
 },
 {
  "code": "13101202",
  "name": "Jåttå Gårdsbryggeri #4",
  "selection": "tu",
  "price": 74.8,
  "link": "https://www.vinmonopolet.no/_/p/13101202",
  "category": "India pale ale",
  "country": "Norge",
  "volume": 330,
  "abv": 6.5,
  "bid": 4169950,
  "rating": 3.92696,
  "ratingCount": 460,
  "style": "IPA - New England",
  "untappdBrewery": "Jåttå gårdsbryggeri",
  "untappdName": "Hops I Høyet Vol 4"
 },
 {
  "code": "13233702",
  "name": "Salikatt Hop Doodle",
  "selection": "tu",
  "price": 69.6,
  "link": "https://www.vinmonopolet.no/_/p/13233702",
  "category": "India pale ale",
  "country": "Norge",
  "volume": 440,
  "abv": 7
 },
 {
  "code": "12910802",
  "name": "RYGR Erling Hazy Pale Ale",
  "selection": "tu",
  "price": 44.6,
  "link": "https://www.vinmonopolet.no/_/p/12910802",
  "category": "India pale ale",
  "country": "Norge",
  "volume": 330,
  "abv": 5.6,
  "bid": 4275248,
  "rating": 4.09701,
  "ratingCount": 117,
  "style": "Pale Ale - Milkshake",
  "untappdBrewery": "RYGR Brygghús",
  "untappdName": "ERLING Hazy Pale Ale"
 },
 {
  "code": "13209102",
  "name": "Elø Collision Course Double IPA",
  "selection": "tu",
  "price": 65.5,
  "link": "https://www.vinmonopolet.no/_/p/13209102",
  "category": "India pale ale",
  "country": "Norge",
  "volume": 330,
  "abv": 8
 },
 {
  "code": "13095902",
  "name": "Maltgarden Much more fun DIPA",
  "selection": "tu",
  "price": 91.5,
  "link": "https://www.vinmonopolet.no/_/p/13095902",
  "category": "India pale ale",
  "country": "Polen",
  "volume": 500,
  "abv": 8.3,
  "bid": 4236238,
  "rating": 3.80617,
  "ratingCount": 470,
  "style": "IPA - Imperial / Double New England",
  "untappdBrewery": "Maltgarden",
  "untappdName": "Much More Fun"
 },
 {
  "code": "13209702",
  "name": "Six degrees North We're not all in this together Kveik NEIPA",
  "selection": "tu",
  "price": 89.9,
  "link": "https://www.vinmonopolet.no/_/p/13209702",
  "category": "India pale ale",
  "country": "Skottland",
  "volume": 440,
  "abv": 5.1,
  "bid": 4083588,
  "rating": 3.77386,
  "ratingCount": 153,
  "style": "IPA - New England",
  "untappdBrewery": "SixºNorth",
  "untappdName": "We're Not All In This Together"
 },
 {
  "code": "13090802",
  "name": "BrewDog vs Mikkeller Urban Fog New England IPA",
  "selection": "tu",
  "price": 71.9,
  "link": "https://www.vinmonopolet.no/_/p/13090802",
  "category": "India pale ale",
  "country": "Skottland",
  "volume": 440,
  "abv": 6.5,
  "bid": 4287566,
  "rating": 3.75944,
  "ratingCount": 2536,
  "style": "IPA - New England",
  "untappdBrewery": "BrewDog",
  "untappdName": "BrewDog VS Mikkeller: Urban Fog"
 },
 {
  "code": "13209602",
  "name": "Six degrees North Slipstream IPA",
  "selection": "tu",
  "price": 69.9,
  "link": "https://www.vinmonopolet.no/_/p/13209602",
  "category": "India pale ale",
  "country": "Skottland",
  "volume": 330,
  "abv": 5.5,
  "bid": 3883958,
  "rating": 3.44508,
  "ratingCount": 122,
  "style": "IPA - Sour",
  "untappdBrewery": "SixºNorth",
  "untappdName": "Slipstream"
 },
 {
  "code": "13187302",
  "name": "BrewDog Mallow Laser Quest Marshmallow & Pineapple Hazy IPA",
  "selection": "tu",
  "price": 61.9,
  "link": "https://www.vinmonopolet.no/_/p/13187302",
  "category": "India pale ale",
  "country": "Skottland",
  "volume": 440,
  "abv": 6,
  "bid": 4145557,
  "rating": 3.66137,
  "ratingCount": 9048,
  "style": "IPA - Milkshake",
  "untappdBrewery": "BrewDog",
  "untappdName": "Mallow Laser Quest"
 },
 {
  "code": "13243902",
  "name": "Brewski Freddo Fox Polkadot SDH DIPA",
  "selection": "tu",
  "price": 82.9,
  "link": "https://www.vinmonopolet.no/_/p/13243902",
  "category": "India pale ale",
  "country": "Sverige",
  "volume": 330,
  "abv": 8,
  "bid": 4268751,
  "rating": 3.93649,
  "ratingCount": 74,
  "style": "IPA - Imperial / Double",
  "untappdBrewery": "Brewski",
  "untappdName": "Polkadot"
 },
 {
  "code": "13243702",
  "name": "Brewski Doge IPA",
  "selection": "tu",
  "price": 80.1,
  "link": "https://www.vinmonopolet.no/_/p/13243702",
  "category": "India pale ale",
  "country": "Sverige",
  "volume": 330,
  "abv": 6,
  "bid": 4297728,
  "rating": 3.89612,
  "ratingCount": 129,
  "style": "IPA - New England",
  "untappdBrewery": "Brewski",
  "untappdName": "Doge IPA"
 },
 {
  "code": "13243802",
  "name": "Brewski Oh, Man Go 2014 Again...",
  "selection": "tu",
  "price": 79.7,
  "link": "https://www.vinmonopolet.no/_/p/13243802",
  "category": "India pale ale",
  "country": "Sverige",
  "volume": 330,
  "abv": 5.5,
  "bid": 4287011,
  "rating": 3.61792,
  "ratingCount": 53,
  "style": "IPA - American",
  "untappdBrewery": "Brewski",
  "untappdName": "Oh Man Go 2014 Again..."
 },
 {
  "code": "13224202",
  "name": "Poppels x Collective Arts x All In Brewing Escape the Mothership DIPA",
  "selection": "tu",
  "price": 86.9,
  "link": "https://www.vinmonopolet.no/_/p/13224202",
  "category": "India pale ale",
  "country": "Sverige",
  "volume": 440,
  "abv": 8,
  "bid": 4213661,
  "rating": 3.96782,
  "ratingCount": 3822,
  "style": "IPA - Imperial / Double New England",
  "untappdBrewery": "Poppels Bryggeri",
  "untappdName": "Escape the Mothership"
 },
 {
  "code": "13242702",
  "name": "Omnipollo Bellony Motueka Citra Nelson Sauvin DIPA",
  "selection": "tu",
  "price": 82.9,
  "link": "https://www.vinmonopolet.no/_/p/13242702",
  "category": "India pale ale",
  "country": "Sverige",
  "volume": 330,
  "abv": 8,
  "bid": 4273138,
  "rating": 3.91532,
  "ratingCount": 186,
  "style": "IPA - Imperial / Double",
  "untappdBrewery": "Omnipollo",
  "untappdName": "Bellony"
 },
 {
  "code": "13242302",
  "name": "Omnipollo Double Ripples IPA",
  "selection": "tu",
  "price": 80.8,
  "link": "https://www.vinmonopolet.no/_/p/13242302",
  "category": "India pale ale",
  "country": "Sverige",
  "volume": 330,
  "abv": 7.2,
  "bid": 4271931,
  "rating": 3.79004,
  "ratingCount": 231,
  "style": "IPA - American",
  "untappdBrewery": "Omnipollo",
  "untappdName": "Double  Ripples"
 },
 {
  "code": "13141402",
  "name": "Omnipollo Fantom IPA",
  "selection": "tu",
  "price": 80.1,
  "link": "https://www.vinmonopolet.no/_/p/13141402",
  "category": "India pale ale",
  "country": "Sverige",
  "volume": 330,
  "abv": 6.1,
  "bid": 4263880,
  "rating": 0,
  "ratingCount": 0,
  "style": "IPA - American",
  "untappdBrewery": "Omnipollo",
  "untappdName": "Fantom IPA"
 },
 {
  "code": "13141302",
  "name": "Omnipollo Boy",
  "selection": "tu",
  "price": 69.6,
  "link": "https://www.vinmonopolet.no/_/p/13141302",
  "category": "India pale ale",
  "country": "Sverige",
  "volume": 330,
  "abv": 4.9,
  "bid": 4255580,
  "rating": 3.77294,
  "ratingCount": 316,
  "style": "Pale Ale - American",
  "untappdBrewery": "Omnipollo",
  "untappdName": "Boy"
 },
 {
  "code": "13230902",
  "name": "Zichovec More Nectar More Happiness DIPA",
  "selection": "tu",
  "price": 102,
  "link": "https://www.vinmonopolet.no/_/p/13230902",
  "category": "India pale ale",
  "country": "Tsjekkia",
  "volume": 500,
  "abv": 9,
  "bid": 4296612,
  "rating": 4.16956,
  "ratingCount": 225,
  "style": "IPA - Imperial / Double New England",
  "untappdBrewery": "Rodinný pivovar Zichovec",
  "untappdName": "More Nectar More Happiness"
 },
 {
  "code": "13231102",
  "name": "Zichovec Mango Sticky Rice IPA",
  "selection": "tu",
  "price": 93.6,
  "link": "https://www.vinmonopolet.no/_/p/13231102",
  "category": "India pale ale",
  "country": "Tsjekkia",
  "volume": 500,
  "abv": 7,
  "bid": 2754177,
  "rating": 3.92974,
  "ratingCount": 1323,
  "style": "IPA - New England",
  "untappdBrewery": "Rodinný pivovar Zichovec",
  "untappdName": "Mango Sticky Rice"
 },
 {
  "code": "13237302",
  "name": "Equilibrium Straight Outta The Laboratory TIPA",
  "selection": "tu",
  "price": 189.9,
  "link": "https://www.vinmonopolet.no/_/p/13237302",
  "category": "India pale ale",
  "country": "USA",
  "volume": 473,
  "abv": 10.2,
  "bid": 2879668,
  "rating": 4.44604,
  "ratingCount": 8204,
  "style": "IPA - Triple",
  "untappdBrewery": "Equilibrium Brewery",
  "untappdName": "Straight Outta The Laboratory"
 },
 {
  "code": "13237202",
  "name": "Equilibrium Above The Clouds DDH DIPA",
  "selection": "tu",
  "price": 164.9,
  "link": "https://www.vinmonopolet.no/_/p/13237202",
  "category": "India pale ale",
  "country": "USA",
  "volume": 473,
  "abv": 8,
  "bid": 3410515,
  "rating": 4.27903,
  "ratingCount": 3200,
  "style": "IPA - Imperial / Double",
  "untappdBrewery": "Equilibrium Brewery",
  "untappdName": "Above The Clouds"
 },
 {
  "code": "13237402",
  "name": "Equilibrium MC2 Double IPA",
  "selection": "tu",
  "price": 164.9,
  "link": "https://www.vinmonopolet.no/_/p/13237402",
  "category": "India pale ale",
  "country": "USA",
  "volume": 473,
  "abv": 8,
  "bid": 1843473,
  "rating": 4.26387,
  "ratingCount": 51185,
  "style": "IPA - Imperial / Double",
  "untappdBrewery": "Equilibrium Brewery",
  "untappdName": "MC²"
 },
 {
  "code": "13237002",
  "name": "Equilibrium Kinetics DIPA",
  "selection": "tu",
  "price": 164.8,
  "link": "https://www.vinmonopolet.no/_/p/13237002",
  "category": "India pale ale",
  "country": "USA",
  "volume": 473,
  "abv": 8.5,
  "bid": 1438738,
  "rating": 4.24055,
  "ratingCount": 1492,
  "style": "IPA - Imperial / Double",
  "untappdBrewery": "Equilibrium Brewery",
  "untappdName": "Kinetics"
 },
 {
  "code": "13185202",
  "name": "Beer Zombies x The Answer End To End Burners DIPA",
  "selection": "tu",
  "price": 169.9,
  "link": "https://www.vinmonopolet.no/_/p/13185202",
  "category": "India pale ale",
  "country": "USA",
  "volume": 473,
  "abv": 8,
  "bid": 4306642,
  "rating": 4.07875,
  "ratingCount": 313,
  "style": "IPA - Imperial / Double New England",
  "untappdBrewery": "Mason Ale Works",
  "untappdName": "End 2 End Burners"
 },
 {
  "code": "13185002",
  "name": "Mountains Walking Cloud Curtain Mosaic DDH DIPA",
  "selection": "tu",
  "price": 154.9,
  "link": "https://www.vinmonopolet.no/_/p/13185002",
  "category": "India pale ale",
  "country": "USA",
  "volume": 473,
  "abv": 8.5,
  "bid": 3587062,
  "rating": 4.1327,
  "ratingCount": 2318,
  "style": "IPA - Imperial / Double New England",
  "untappdBrewery": "Mountains Walking",
  "untappdName": "Mosaic Cloud Curtain"
 },
 {
  "code": "13186502",
  "name": "Aslin Wait, What DIPA",
  "selection": "tu",
  "price": 149.9,
  "link": "https://www.vinmonopolet.no/_/p/13186502",
  "category": "India pale ale",
  "country": "USA",
  "volume": 473,
  "abv": 8.3,
  "bid": 4240581,
  "rating": 3.96508,
  "ratingCount": 590,
  "style": "IPA - Imperial / Double",
  "untappdBrewery": "Aslin Beer Company",
  "untappdName": "Wait, What?"
 },
 {
  "code": "13193602",
  "name": "Mast Landing Arizona Sun DDH DIPA",
  "selection": "tu",
  "price": 149.9,
  "link": "https://www.vinmonopolet.no/_/p/13193602",
  "category": "India pale ale",
  "country": "USA",
  "volume": 473,
  "abv": 8.1,
  "bid": 3765275,
  "rating": 4.17576,
  "ratingCount": 1743,
  "style": "IPA - Imperial / Double New England",
  "untappdBrewery": "Mast Landing Brewing Co.",
  "untappdName": "Arizona Sun"
 },
 {
  "code": "13193702",
  "name": "Mast Landing x Aslin Super Wrastlin' Moves DDH DIPA",
  "selection": "tu",
  "price": 149.9,
  "link": "https://www.vinmonopolet.no/_/p/13193702",
  "category": "India pale ale",
  "country": "USA",
  "volume": 473,
  "abv": 8,
  "bid": 4237585,
  "rating": 4.22013,
  "ratingCount": 770,
  "style": "IPA - Imperial / Double",
  "untappdBrewery": "Mast Landing Brewing Co.",
  "untappdName": "Super Wrastlin' Moves"
 },
 {
  "code": "13193902",
  "name": "Brix City Get Puft DIPA",
  "selection": "tu",
  "price": 149.9,
  "link": "https://www.vinmonopolet.no/_/p/13193902",
  "category": "India pale ale",
  "country": "USA",
  "volume": 473,
  "abv": 8,
  "bid": 3748197,
  "rating": 4.12729,
  "ratingCount": 1112,
  "style": "IPA - Imperial / Double New England",
  "untappdBrewery": "Brix City Brewing",
  "untappdName": "Get Puft"
 },
 {
  "code": "13194502",
  "name": "Toppling Goliath x BlackStack Brewing Safety Porpoises DIPA",
  "selection": "tu",
  "price": 149.9,
  "link": "https://www.vinmonopolet.no/_/p/13194502",
  "category": "India pale ale",
  "country": "USA",
  "volume": 473,
  "abv": 7.9,
  "bid": 4175256,
  "rating": 4.17085,
  "ratingCount": 7871,
  "style": "IPA - Imperial / Double",
  "untappdBrewery": "Toppling Goliath Brewing Co.",
  "untappdName": "Safety Porpoises"
 },
 {
  "code": "13186202",
  "name": "Väsen Cashmere Secrets DIPA",
  "selection": "tu",
  "price": 144.9,
  "link": "https://www.vinmonopolet.no/_/p/13186202",
  "category": "India pale ale",
  "country": "USA",
  "volume": 473,
  "abv": 8,
  "bid": 3089556,
  "rating": 4.12241,
  "ratingCount": 2640,
  "style": "IPA - Imperial / Double New England",
  "untappdBrewery": "Väsen Brewing Company",
  "untappdName": "Cashmere Secrets"
 },
 {
  "code": "13193802",
  "name": "Brix City Tasty Jams IPA",
  "selection": "tu",
  "price": 144.9,
  "link": "https://www.vinmonopolet.no/_/p/13193802",
  "category": "India pale ale",
  "country": "USA",
  "volume": 473,
  "abv": 6.5,
  "bid": 2154896,
  "rating": 4.08309,
  "ratingCount": 3832,
  "style": "IPA - American",
  "untappdBrewery": "Brix City Brewing",
  "untappdName": "Tasty Jams"
 },
 {
  "code": "13185502",
  "name": "Hailstorm Stratus Hazy DIPA",
  "selection": "tu",
  "price": 139.9,
  "link": "https://www.vinmonopolet.no/_/p/13185502",
  "category": "India pale ale",
  "country": "USA",
  "volume": 473,
  "abv": 8,
  "bid": 1622209,
  "rating": 4.09216,
  "ratingCount": 6364,
  "style": "IPA - Imperial / Double New England",
  "untappdBrewery": "Hailstorm Brewing Co. ",
  "untappdName": "Stratus"
 },
 {
  "code": "13185902",
  "name": "Brix City Wall of Sound DDH IPA",
  "selection": "tu",
  "price": 139.9,
  "link": "https://www.vinmonopolet.no/_/p/13185902",
  "category": "India pale ale",
  "country": "USA",
  "volume": 473,
  "abv": 6.5,
  "bid": 2326372,
  "rating": 4.00185,
  "ratingCount": 1162,
  "style": "IPA - New England",
  "untappdBrewery": "Brix City Brewing",
  "untappdName": "Wall of Sound"
 },
 {
  "code": "13186302",
  "name": "Väsen Kamiakin IPA",
  "selection": "tu",
  "price": 139.9,
  "link": "https://www.vinmonopolet.no/_/p/13186302",
  "category": "India pale ale",
  "country": "USA",
  "volume": 473,
  "abv": 5.8,
  "bid": 4205149,
  "rating": 4.05971,
  "ratingCount": 577,
  "style": "IPA - New England",
  "untappdBrewery": "Väsen Brewing Company",
  "untappdName": "Kamiakin"
 },
 {
  "code": "13186402",
  "name": "Aslin Why IPA",
  "selection": "tu",
  "price": 139.9,
  "link": "https://www.vinmonopolet.no/_/p/13186402",
  "category": "India pale ale",
  "country": "USA",
  "volume": 473,
  "abv": 5.5,
  "bid": 4243040,
  "rating": 3.88242,
  "ratingCount": 310,
  "style": "IPA - American",
  "untappdBrewery": "Aslin Beer Company",
  "untappdName": "Why?"
 },
 {
  "code": "13231902",
  "name": "Toppling Goliath MoZee IPA",
  "selection": "tu",
  "price": 134.9,
  "link": "https://www.vinmonopolet.no/_/p/13231902",
  "category": "India pale ale",
  "country": "USA",
  "volume": 473,
  "abv": 6.2,
  "bid": 1076485,
  "rating": 4.12847,
  "ratingCount": 18618,
  "style": "IPA - American",
  "untappdBrewery": "Toppling Goliath Brewing Co.",
  "untappdName": "MoZee"
 },
 {
  "code": "13230202",
  "name": "Polly's A Fleeting Sound DDH TIPA",
  "selection": "tu",
  "price": 121.6,
  "link": "https://www.vinmonopolet.no/_/p/13230202",
  "category": "India pale ale",
  "country": "Wales",
  "volume": 440,
  "abv": 11,
  "bid": 4321032,
  "rating": 4.2884,
  "ratingCount": 125,
  "style": "IPA - Triple New England",
  "untappdBrewery": "Polly's Brew Co.",
  "untappdName": "A Fleeting Sound"
 },
 {
  "code": "13230002",
  "name": "Polly's We've lost dancing DDH IPA",
  "selection": "tu",
  "price": 97.1,
  "link": "https://www.vinmonopolet.no/_/p/13230002",
  "category": "India pale ale",
  "country": "Wales",
  "volume": 440,
  "abv": 7,
  "bid": 4311691,
  "rating": 4.12746,
  "ratingCount": 213,
  "style": "IPA - New England",
  "untappdBrewery": "Polly's Brew Co.",
  "untappdName": "We've Lost Dancing"
 },
 {
  "code": "13184402",
  "name": "Gipsy Hill Pendler Pilsner",
  "selection": "tu",
  "price": 74.9,
  "link": "https://www.vinmonopolet.no/_/p/13184402",
  "category": "Lys lager",
  "country": "England",
  "volume": 440,
  "abv": 5.3,
  "bid": 4285732,
  "rating": 3.67815,
  "ratingCount": 119,
  "style": "Pilsner - German",
  "untappdBrewery": "The Gipsy Hill Brewing Co.",
  "untappdName": "Pendler"
 },
 {
  "code": "13230402",
  "name": "Pentrich Smiles & Sunshine Helles Lager",
  "selection": "tu",
  "price": 68.9,
  "link": "https://www.vinmonopolet.no/_/p/13230402",
  "category": "Lys lager",
  "country": "England",
  "volume": 440,
  "abv": 5,
  "bid": 4263963,
  "rating": 3.71164,
  "ratingCount": 146,
  "style": "Lager - Helles",
  "untappdBrewery": "Pentrich Brewing Co.",
  "untappdName": "Smiles & Sunshine"
 },
 {
  "code": "13166702",
  "name": "Jåttå Gårdsbryggeri Helles lager",
  "selection": "tu",
  "price": 49.8,
  "link": "https://www.vinmonopolet.no/_/p/13166702",
  "category": "Lys lager",
  "country": "Norge",
  "volume": 330,
  "abv": 5,
  "bid": 4344743,
  "rating": 0,
  "ratingCount": 9,
  "style": "Lager - Helles",
  "untappdBrewery": "Jåttå gårdsbryggeri",
  "untappdName": "Helles Lager"
 },
 {
  "code": "13175602",
  "name": "Hogna Crispi Boi",
  "selection": "tu",
  "price": 69.9,
  "link": "https://www.vinmonopolet.no/_/p/13175602",
  "category": "Lys lager",
  "country": "Norge",
  "volume": 440,
  "abv": 5.5,
  "bid": 4339526,
  "rating": 0,
  "ratingCount": 1,
  "style": "Pilsner - German",
  "untappdBrewery": "Hogna Brygg",
  "untappdName": "Crispy Boi"
 },
 {
  "code": "13243007",
  "name": "Mahr's Bräu Bamberg Helles Limited Edition",
  "selection": "tu",
  "price": 599,
  "link": "https://www.vinmonopolet.no/_/p/13243007",
  "category": "Lys lager",
  "country": "Tyskland",
  "volume": 5000,
  "abv": 4.9,
  "bid": 3014076,
  "rating": 0,
  "ratingCount": 6,
  "style": "Lager - Helles",
  "untappdBrewery": "Brauerei Greifenklau",
  "untappdName": "Jubiläumsbier 200 Jahre Altenburgverein"
 },
 {
  "code": "7397302",
  "name": "Flensburger Frühlingsbock",
  "selection": "tu",
  "price": 55.3,
  "link": "https://www.vinmonopolet.no/_/p/7397302",
  "category": "Mørk lager",
  "country": "Tyskland",
  "volume": 330,
  "abv": 6.9,
  "bid": 45404,
  "rating": 3.28016,
  "ratingCount": 10666,
  "style": "Bock - Hell / Maibock / Lentebock",
  "untappdBrewery": "Flensburger Brauerei Emil Petersen",
  "untappdName": "Frühlingsbock"
 },
 {
  "code": "13215002",
  "name": "Verdant Roy, I Want A Hilux Pale Ale",
  "selection": "tu",
  "price": 104.9,
  "link": "https://www.vinmonopolet.no/_/p/13215002",
  "category": "Pale ale",
  "country": "England",
  "volume": 440,
  "abv": 5.5,
  "bid": 1878578,
  "rating": 4.01306,
  "ratingCount": 2653,
  "style": "Pale Ale - New England",
  "untappdBrewery": "Verdant Brewing Co",
  "untappdName": "Roy, I Want A Hilux"
 },
 {
  "code": "13195502",
  "name": "Brew York Ground Hop Day",
  "selection": "tu",
  "price": 115.5,
  "link": "https://www.vinmonopolet.no/_/p/13195502",
  "category": "Pale ale",
  "country": "England",
  "volume": 440,
  "abv": 4.9,
  "bid": 4254421,
  "rating": 3.65437,
  "ratingCount": 423,
  "style": "Pale Ale - American",
  "untappdBrewery": "Brew York",
  "untappdName": "Ground Hop Day"
 },
 {
  "code": "13126402",
  "name": "Brew York Mash Bandicoot",
  "selection": "tu",
  "price": 114.6,
  "link": "https://www.vinmonopolet.no/_/p/13126402",
  "category": "Pale ale",
  "country": "England",
  "volume": 440,
  "abv": 5,
  "bid": 4172905,
  "rating": 3.68599,
  "ratingCount": 728,
  "style": "Pale Ale - American",
  "untappdBrewery": "Brew York",
  "untappdName": "Mash Bandicoot"
 },
 {
  "code": "13126502",
  "name": "Brew York Lupu Lion",
  "selection": "tu",
  "price": 113.9,
  "link": "https://www.vinmonopolet.no/_/p/13126502",
  "category": "Pale ale",
  "country": "England",
  "volume": 440,
  "abv": 5,
  "bid": 4201852,
  "rating": 3.65364,
  "ratingCount": 865,
  "style": "Pale Ale - American",
  "untappdBrewery": "Brew York",
  "untappdName": "Lupu Lion"
 },
 {
  "code": "13176402",
  "name": "Bådin Rognan Pale Ale",
  "selection": "tu",
  "price": 58.7,
  "link": "https://www.vinmonopolet.no/_/p/13176402",
  "category": "Pale ale",
  "country": "Norge",
  "volume": 330,
  "abv": 5.5
 },
 {
  "code": "13230102",
  "name": "Polly's Mont Brook Pale Ale",
  "selection": "tu",
  "price": 82.1,
  "link": "https://www.vinmonopolet.no/_/p/13230102",
  "category": "Pale ale",
  "country": "Wales",
  "volume": 440,
  "abv": 5.4,
  "bid": 4311692,
  "rating": 3.9264,
  "ratingCount": 250,
  "style": "Pale Ale - New England",
  "untappdBrewery": "Polly's Brew Co.",
  "untappdName": "Mont Brook"
 },
 {
  "code": "13236202",
  "name": "Brew York x Emperor's The Final Chapter Honeycomb, Coconut, Cacao, Tonka",
  "selection": "tu",
  "price": 168.8,
  "link": "https://www.vinmonopolet.no/_/p/13236202",
  "category": "Porter & stout",
  "country": "England",
  "volume": 440,
  "abv": 15,
  "bid": 4300781,
  "rating": 4.43702,
  "ratingCount": 470,
  "style": "Stout - Imperial / Double Milk",
  "untappdBrewery": "Brew York",
  "untappdName": "The Final Chapter"
 },
 {
  "code": "13236102",
  "name": "Brew York x Tiny Rebel The Dream Child Rocky Roads Ice Cream Pastry Stout",
  "selection": "tu",
  "price": 153.8,
  "link": "https://www.vinmonopolet.no/_/p/13236102",
  "category": "Porter & stout",
  "country": "England",
  "volume": 440,
  "abv": 14,
  "bid": 4300780,
  "rating": 4.38727,
  "ratingCount": 499,
  "style": "Stout - Imperial / Double Pastry",
  "untappdBrewery": "Brew York",
  "untappdName": "The Dream Child"
 },
 {
  "code": "13235802",
  "name": "Brew York x Amundsen A New Beginning Imperial Breakfast Stout",
  "selection": "tu",
  "price": 148.9,
  "link": "https://www.vinmonopolet.no/_/p/13235802",
  "category": "Porter & stout",
  "country": "England",
  "volume": 440,
  "abv": 11,
  "bid": 4300779,
  "rating": 4.16071,
  "ratingCount": 691,
  "style": "Stout - Imperial / Double Coffee",
  "untappdBrewery": "Brew York",
  "untappdName": "A New Beginning"
 },
 {
  "code": "13101402",
  "name": "Brew York Draids",
  "selection": "tu",
  "price": 147,
  "link": "https://www.vinmonopolet.no/_/p/13101402",
  "category": "Porter & stout",
  "country": "England",
  "volume": 440,
  "abv": 12,
  "bid": 4182713,
  "rating": 4.07042,
  "ratingCount": 666,
  "style": "Stout - Russian Imperial",
  "untappdBrewery": "Brew York",
  "untappdName": "DRADIS"
 },
 {
  "code": "13235902",
  "name": "Brew York x Fierce The Ghost Dimension Mexican Mole Imperial Stout",
  "selection": "tu",
  "price": 147,
  "link": "https://www.vinmonopolet.no/_/p/13235902",
  "category": "Porter & stout",
  "country": "England",
  "volume": 440,
  "abv": 13,
  "bid": 4300784,
  "rating": 4.10713,
  "ratingCount": 456,
  "style": "Chilli / Chile Beer",
  "untappdBrewery": "Brew York",
  "untappdName": "The Ghost Dimension"
 },
 {
  "code": "13235702",
  "name": "Brew York Naparbier The Revenge Maple & Pecan Imperial Stout",
  "selection": "tu",
  "price": 144.2,
  "link": "https://www.vinmonopolet.no/_/p/13235702",
  "category": "Porter & stout",
  "country": "England",
  "volume": 440,
  "abv": 12,
  "bid": 4300782,
  "rating": 4.22113,
  "ratingCount": 639,
  "style": "Stout - Imperial / Double Milk",
  "untappdBrewery": "Brew York",
  "untappdName": "The Revenge"
 },
 {
  "code": "13098102",
  "name": "Alpha Delta Nyx Milk Stout",
  "selection": "tu",
  "price": 120.5,
  "link": "https://www.vinmonopolet.no/_/p/13098102",
  "category": "Porter & stout",
  "country": "England",
  "volume": 440,
  "abv": 9.5,
  "bid": 3936744,
  "rating": 3.98914,
  "ratingCount": 594,
  "style": "Stout - Imperial / Double Milk",
  "untappdBrewery": "Alpha Delta Brewing",
  "untappdName": "Nyx"
 },
 {
  "code": "13194102",
  "name": "Northern Monk Patrons 30.01 Lanre Bakare From Bradford To The World",
  "selection": "tu",
  "price": 94.9,
  "link": "https://www.vinmonopolet.no/_/p/13194102",
  "category": "Porter & stout",
  "country": "England",
  "volume": 440,
  "abv": 8.3,
  "bid": 4286763,
  "rating": 3.84106,
  "ratingCount": 671,
  "style": "Stout - Foreign / Export",
  "untappdBrewery": "Northern Monk",
  "untappdName": "Patrons Project 30.01 // Lanre Bakare // From Bradford to the World // Foreign Extra Stout"
 },
 {
  "code": "13243102",
  "name": "Sori Brewing Hybrid Treats Cinnamon Bun & Dark Roast Coffee",
  "selection": "tu",
  "price": 99.9,
  "link": "https://www.vinmonopolet.no/_/p/13243102",
  "category": "Porter & stout",
  "country": "Estland",
  "volume": 330,
  "abv": 12,
  "bid": 4229321,
  "rating": 3.9497,
  "ratingCount": 501,
  "style": "Stout - Imperial / Double Pastry",
  "untappdBrewery": "Sori Brewing",
  "untappdName": "Hybrid Treats Vol.1: Cinnamon Bun & Coffee"
 },
 {
  "code": "13281502",
  "name": "Seven Island Thymós Imperial Stout",
  "selection": "tu",
  "price": 129.9,
  "link": "https://www.vinmonopolet.no/_/p/13281502",
  "category": "Porter & stout",
  "country": "Hellas",
  "volume": 440,
  "abv": 12,
  "bid": 4252837,
  "rating": 4.19046,
  "ratingCount": 241,
  "style": "Stout - Russian Imperial",
  "untappdBrewery": "Seven Island Brewery",
  "untappdName": "Thymós"
 },
 {
  "code": "13281602",
  "name": "Seven Island Gooey and Nutty Imperial stout",
  "selection": "tu",
  "price": 119.9,
  "link": "https://www.vinmonopolet.no/_/p/13281602",
  "category": "Porter & stout",
  "country": "Hellas",
  "volume": 440,
  "abv": 12,
  "bid": 4252833,
  "rating": 4.17315,
  "ratingCount": 337,
  "style": "Stout - Imperial / Double Pastry",
  "untappdBrewery": "Seven Island Brewery",
  "untappdName": "Gooey & Nutty"
 },
 {
  "code": "13281702",
  "name": "Seven Island Hypercone Imperial Stout",
  "selection": "tu",
  "price": 119.9,
  "link": "https://www.vinmonopolet.no/_/p/13281702",
  "category": "Porter & stout",
  "country": "Hellas",
  "volume": 440,
  "abv": 12,
  "bid": 4252834,
  "rating": 4.12368,
  "ratingCount": 321,
  "style": "Stout - Imperial / Double Pastry",
  "untappdBrewery": "Seven Island Brewery",
  "untappdName": "Hypercone"
 },
 {
  "code": "13244202",
  "name": "Third Barrel The Darkness 2020",
  "selection": "tu",
  "price": 96.7,
  "link": "https://www.vinmonopolet.no/_/p/13244202",
  "category": "Porter & stout",
  "country": "Irland",
  "volume": 330,
  "abv": 10,
  "bid": 4078995,
  "rating": 3.95157,
  "ratingCount": 159,
  "style": "Stout - Russian Imperial",
  "untappdBrewery": "Third Barrel Brewing",
  "untappdName": "The Darkness 2020"
 },
 {
  "code": "13231802",
  "name": "Amundsen Emperor of Time Bourbon Barrel Aged Imperial Ultra Stout",
  "selection": "tu",
  "price": 151.9,
  "link": "https://www.vinmonopolet.no/_/p/13231802",
  "category": "Porter & stout",
  "country": "Norge",
  "volume": 440,
  "abv": 13,
  "bid": 4281345,
  "rating": 0,
  "ratingCount": 6,
  "style": "Stout - Imperial / Double",
  "untappdBrewery": "Amundsen Brewery",
  "untappdName": "Emperor Of Time"
 },
 {
  "code": "13209802",
  "name": "Six degrees North Darkness Inside",
  "selection": "tu",
  "price": 89.9,
  "link": "https://www.vinmonopolet.no/_/p/13209802",
  "category": "Porter & stout",
  "country": "Skottland",
  "volume": 440,
  "abv": 6.4,
  "bid": 4288270,
  "rating": 3.65333,
  "ratingCount": 60,
  "style": "Stout - Coffee",
  "untappdBrewery": "SixºNorth",
  "untappdName": "Darkness Inside"
 },
 {
  "code": "13161302",
  "name": "Omnipollo Kyrka Cake News Strawberry Double Breakfast Stout",
  "selection": "tu",
  "price": 136.7,
  "link": "https://www.vinmonopolet.no/_/p/13161302",
  "category": "Porter & stout",
  "country": "Sverige",
  "volume": 330,
  "abv": 10.5,
  "bid": 4263879,
  "rating": 0,
  "ratingCount": 0,
  "style": "Stout - Imperial / Double Pastry",
  "untappdBrewery": "Omnipollo",
  "untappdName": "Cake News Strawberry Double Breakfast Stout"
 },
 {
  "code": "13232002",
  "name": "Poppels x All In Brewing All-Into It Barrel Aged Stout",
  "selection": "tu",
  "price": 114.9,
  "link": "https://www.vinmonopolet.no/_/p/13232002",
  "category": "Porter & stout",
  "country": "Sverige",
  "volume": 330,
  "abv": 13.2,
  "bid": 4176061,
  "rating": 4.15719,
  "ratingCount": 1106,
  "style": "Stout - Imperial / Double",
  "untappdBrewery": "Poppels Bryggeri",
  "untappdName": "All-Into It"
 },
 {
  "code": "13232202",
  "name": "Poppels Bourbon & Rum Barrel Aged Stout",
  "selection": "tu",
  "price": 114.9,
  "link": "https://www.vinmonopolet.no/_/p/13232202",
  "category": "Porter & stout",
  "country": "Sverige",
  "volume": 330,
  "abv": 13.5
 },
 {
  "code": "13194402",
  "name": "This Is How To Skip Dessert Chocolate Stout",
  "selection": "tu",
  "price": 79.9,
  "link": "https://www.vinmonopolet.no/_/p/13194402",
  "category": "Porter & stout",
  "country": "Sverige",
  "volume": 330,
  "abv": 10.5,
  "bid": 2350844,
  "rating": 3.62178,
  "ratingCount": 1841,
  "style": "Stout - Imperial / Double",
  "untappdBrewery": "This Is How",
  "untappdName": "How To Skip Dessert"
 },
 {
  "code": "13185102",
  "name": "Mountains Walking x Bhramari Dessert Cart Cinnabon Roll Sour Pastry Stout",
  "selection": "tu",
  "price": 169.9,
  "link": "https://www.vinmonopolet.no/_/p/13185102",
  "category": "Porter & stout",
  "country": "USA",
  "volume": 473,
  "abv": 10.5,
  "bid": 4235260,
  "rating": 3.96713,
  "ratingCount": 578,
  "style": "Stout - Imperial / Double Pastry",
  "untappdBrewery": "Mountains Walking",
  "untappdName": "Dessert Cart - Sour Cinnabon"
 },
 {
  "code": "13185302",
  "name": "Hailstorm Coconut Vlad Russian Imperial Stout",
  "selection": "tu",
  "price": 169.9,
  "link": "https://www.vinmonopolet.no/_/p/13185302",
  "category": "Porter & stout",
  "country": "USA",
  "volume": 473,
  "abv": 13,
  "bid": 1511493,
  "rating": 4.12294,
  "ratingCount": 425,
  "style": "Stout - Russian Imperial",
  "untappdBrewery": "Hailstorm Brewing Co. ",
  "untappdName": "Coconut Vlad"
 },
 {
  "code": "13185402",
  "name": "Hailstorm Night Moves Imperial Milk Stout",
  "selection": "tu",
  "price": 160,
  "link": "https://www.vinmonopolet.no/_/p/13185402",
  "category": "Porter & stout",
  "country": "USA",
  "volume": 473,
  "abv": 9.5,
  "bid": 1990669,
  "rating": 4.30239,
  "ratingCount": 12132,
  "style": "Stout - Imperial / Double Coffee",
  "untappdBrewery": "Mikerphone Brewing",
  "untappdName": "Imperial Smells Like Bean Spirit"
 },
 {
  "code": "13194602",
  "name": "Mikerphone Smells Like Bean Spirit Double Maple Breakfast Stout",
  "selection": "tu",
  "price": 149.9,
  "link": "https://www.vinmonopolet.no/_/p/13194602",
  "category": "Porter & stout",
  "country": "USA",
  "volume": 473,
  "abv": 8
 },
 {
  "code": "13186602",
  "name": "Aslin How Now Brown Cow Milk Stout With Coffee & Maple",
  "selection": "tu",
  "price": 139.9,
  "link": "https://www.vinmonopolet.no/_/p/13186602",
  "category": "Porter & stout",
  "country": "USA",
  "volume": 473,
  "abv": 6,
  "bid": 1674875,
  "rating": 4.08145,
  "ratingCount": 3819,
  "style": "Stout - Milk / Sweet",
  "untappdBrewery": "Aslin Beer Company",
  "untappdName": "How Now Brown Cow (w/ Coffee & Maple)"
 },
 {
  "code": "11503201",
  "name": "Burning Sky Cider Apple Saison",
  "selection": "tu",
  "price": 226.1,
  "link": "https://www.vinmonopolet.no/_/p/11503201",
  "category": "Saison farmhouse ale",
  "country": "England",
  "volume": 750,
  "abv": 6.7,
  "bid": 3368693,
  "rating": 4.02413,
  "ratingCount": 574,
  "style": "Farmhouse Ale - Saison",
  "untappdBrewery": "Burning Sky Brewery",
  "untappdName": "Cider Apple Saison"
 },
 {
  "code": "13165202",
  "name": "Lysefjorden Hoppy Saison",
  "selection": "tu",
  "price": 73.8,
  "link": "https://www.vinmonopolet.no/_/p/13165202",
  "category": "Saison farmhouse ale",
  "country": "Norge",
  "volume": 330,
  "abv": 6.5,
  "bid": 4339103,
  "rating": 0,
  "ratingCount": 2,
  "style": "Farmhouse Ale - Saison",
  "untappdBrewery": "Lysefjorden Mikrobryggeri ",
  "untappdName": "Hoppy Saison"
 },
 {
  "code": "13240902",
  "name": "Mikkeller Spontanacai",
  "selection": "tu",
  "price": 146.6,
  "link": "https://www.vinmonopolet.no/_/p/13240902",
  "category": "Spesial",
  "country": "Belgia",
  "volume": 375,
  "abv": 7.7,
  "bid": 3661780,
  "rating": 3.79131,
  "ratingCount": 2842,
  "style": "Wild Ale - Other",
  "untappdBrewery": "Mikkeller",
  "untappdName": "SpontanAcai"
 },
 {
  "code": "13241102",
  "name": "Mikkeller Spontanblackberry",
  "selection": "tu",
  "price": 146.6,
  "link": "https://www.vinmonopolet.no/_/p/13241102",
  "category": "Spesial",
  "country": "Belgia",
  "volume": 375,
  "abv": 7.7,
  "bid": 2275888,
  "rating": 3.82504,
  "ratingCount": 3969,
  "style": "Sour - Fruited",
  "untappdBrewery": "Mikkeller",
  "untappdName": "Spontanblackberry"
 },
 {
  "code": "13196402",
  "name": "Wander Beyond Forest Roam",
  "selection": "tu",
  "price": 119.9,
  "link": "https://www.vinmonopolet.no/_/p/13196402",
  "category": "Spesial",
  "country": "England",
  "volume": 440,
  "abv": 12,
  "bid": 4228315,
  "rating": 3.87143,
  "ratingCount": 70,
  "style": "Fruit Beer",
  "untappdBrewery": "Wander Beyond Brewing",
  "untappdName": "Forest Roam"
 },
 {
  "code": "13114702",
  "name": "Skudenes Thruster Raspberry Milkshake IPA",
  "selection": "tu",
  "price": 69.9,
  "link": "https://www.vinmonopolet.no/_/p/13114702",
  "category": "Spesial",
  "country": "Norge",
  "volume": 330,
  "abv": 7
 },
 {
  "code": "13242602",
  "name": "Omnipollo x The Veil Collaberation Tefnut Pistachio Milk Toffee Iced Coffee Pine",
  "selection": "tu",
  "price": 121.1,
  "link": "https://www.vinmonopolet.no/_/p/13242602",
  "category": "Spesial",
  "country": "Sverige",
  "volume": 330,
  "abv": 10,
  "bid": 4269338,
  "rating": 3.98255,
  "ratingCount": 424,
  "style": "Sour - Fruited Gose",
  "untappdBrewery": "Omnipollo",
  "untappdName": "Tefnut Pistachio Milk Toffee Iced Coffee Pineapple Triple Fruited Imperial Gose"
 },
 {
  "code": "13241002",
  "name": "Mikkeller Spontan Double Cassis",
  "selection": "tu",
  "price": 168.3,
  "link": "https://www.vinmonopolet.no/_/p/13241002",
  "category": "Surøl",
  "country": "Belgia",
  "volume": 375,
  "abv": 7.7,
  "bid": 3496893,
  "rating": 3.87781,
  "ratingCount": 2280,
  "style": "Lambic - Fruit",
  "untappdBrewery": "Mikkeller",
  "untappdName": "Spontandoublecassis"
 },
 {
  "code": "13244001",
  "name": "Mikkeller Baghaven Bagsæson Blend 1",
  "selection": "tu",
  "price": 258.7,
  "link": "https://www.vinmonopolet.no/_/p/13244001",
  "category": "Surøl",
  "country": "Danmark",
  "volume": 750,
  "abv": 6.8,
  "bid": 4279500,
  "rating": 3.90348,
  "ratingCount": 287,
  "style": "Farmhouse Ale - Other",
  "untappdBrewery": "Mikkeller Baghaven",
  "untappdName": "Bagsæson"
 },
 {
  "code": "13184202",
  "name": "Gipsy Hill Squashed Fruited Sour Lychee, Gooseberry & Elderflower",
  "selection": "tu",
  "price": 89.9,
  "link": "https://www.vinmonopolet.no/_/p/13184202",
  "category": "Surøl",
  "country": "England",
  "volume": 440,
  "abv": 4.8,
  "bid": 4286810,
  "rating": 3.72046,
  "ratingCount": 303,
  "style": "Sour - Fruited",
  "untappdBrewery": "The Gipsy Hill Brewing Co.",
  "untappdName": "Squashed: Lychee, Gooseberry, Elderflower"
 },
 {
  "code": "13126602",
  "name": "Brew York Viva La Guava-Lution",
  "selection": "tu",
  "price": 117.1,
  "link": "https://www.vinmonopolet.no/_/p/13126602",
  "category": "Surøl",
  "country": "England",
  "volume": 440,
  "abv": 6.5,
  "bid": 4009876,
  "rating": 3.67807,
  "ratingCount": 2515,
  "style": "Sour - Fruited",
  "untappdBrewery": "Brew York",
  "untappdName": "Viva La Guava-Lution"
 },
 {
  "code": "13209502",
  "name": "The Piggy Blueberry Machine Sour",
  "selection": "tu",
  "price": 89.9,
  "link": "https://www.vinmonopolet.no/_/p/13209502",
  "category": "Surøl",
  "country": "Frankrike",
  "volume": 440,
  "abv": 5.2,
  "bid": 4307542,
  "rating": 3.68085,
  "ratingCount": 47,
  "style": "Sour - Fruited",
  "untappdBrewery": "The Piggy Brewing Company",
  "untappdName": "Blueberry Machine"
 },
 {
  "code": "13281402",
  "name": "Seven Island Tiki Moi Triple Fruited",
  "selection": "tu",
  "price": 99.9,
  "link": "https://www.vinmonopolet.no/_/p/13281402",
  "category": "Surøl",
  "country": "Hellas",
  "volume": 440,
  "abv": 6.5,
  "bid": 4105395,
  "rating": 3.83397,
  "ratingCount": 421,
  "style": "Sour - Fruited Berliner Weisse",
  "untappdBrewery": "Seven Island Brewery",
  "untappdName": "Tiki Moi"
 },
 {
  "code": "13210002",
  "name": "Moersleutel Vanilla Passionfruit Cheesecake Pastry Sour",
  "selection": "tu",
  "price": 89.9,
  "link": "https://www.vinmonopolet.no/_/p/13210002",
  "category": "Surøl",
  "country": "Nederland",
  "volume": 440,
  "abv": 6.5,
  "bid": 4234847,
  "rating": 3.76196,
  "ratingCount": 1889,
  "style": "Sour - Fruited",
  "untappdBrewery": "Moersleutel Craft Brewery",
  "untappdName": "Vanilla & Passionfruit Cheesecake"
 },
 {
  "code": "13194302",
  "name": "Amundsen In Cafruits Blood Orange & Mandarin Creamsicle Pastry Sour",
  "selection": "tu",
  "price": 99.9,
  "link": "https://www.vinmonopolet.no/_/p/13194302",
  "category": "Surøl",
  "country": "Norge",
  "volume": 440,
  "abv": 6.5,
  "bid": 4281355,
  "rating": 0,
  "ratingCount": 3,
  "style": "Sour - Fruited",
  "untappdBrewery": "Amundsen Brewery",
  "untappdName": "In Cafruits - Blood Orange & Mandarin Creamsicle"
 },
 {
  "code": "13175302",
  "name": "Rygr Sure Brynhild Bringebær Trippelfruktet Surøl",
  "selection": "tu",
  "price": 97.5,
  "link": "https://www.vinmonopolet.no/_/p/13175302",
  "category": "Surøl",
  "country": "Norge",
  "volume": 330,
  "abv": 7.5,
  "bid": 4275239,
  "rating": 4.10833,
  "ratingCount": 96,
  "style": "Sour - Fruited",
  "untappdBrewery": "RYGR Brygghús",
  "untappdName": "SURE-BRYNHILD Trippelfruktet Bringebær Surøl"
 },
 {
  "code": "13175402",
  "name": "Rygr Sure Berly Blåbær Trippelfruktet Surøl",
  "selection": "tu",
  "price": 97.5,
  "link": "https://www.vinmonopolet.no/_/p/13175402",
  "category": "Surøl",
  "country": "Norge",
  "volume": 330,
  "abv": 7.5,
  "bid": 4275238,
  "rating": 3.9382,
  "ratingCount": 89,
  "style": "Sour - Fruited",
  "untappdBrewery": "RYGR Brygghús",
  "untappdName": "SURE-BERLY Trippelfruktet Blåbær Surøl"
 },
 {
  "code": "13175502",
  "name": "Rygr Sure Gyda Tranebær/Granateple Trippelfruktet Surøl",
  "selection": "tu",
  "price": 97.5,
  "link": "https://www.vinmonopolet.no/_/p/13175502",
  "category": "Surøl",
  "country": "Norge",
  "volume": 330,
  "abv": 7.5,
  "bid": 4275240,
  "rating": 3.86837,
  "ratingCount": 98,
  "style": "Sour - Fruited",
  "untappdBrewery": "RYGR Brygghús",
  "untappdName": "SURE-GYDA Trippelfruktet Tranebær/Granateple Surøl"
 },
 {
  "code": "13237702",
  "name": "Skudenes Surøl Jordbær & Basilikum",
  "selection": "tu",
  "price": 74,
  "link": "https://www.vinmonopolet.no/_/p/13237702",
  "category": "Surøl",
  "country": "Norge",
  "volume": 330,
  "abv": 6
 },
 {
  "code": "11962702",
  "name": "Salikatt Red Summer Smoothie",
  "selection": "tu",
  "price": 69.9,
  "link": "https://www.vinmonopolet.no/_/p/11962702",
  "category": "Surøl",
  "country": "Norge",
  "volume": 330,
  "abv": 5.5,
  "bid": 3832171,
  "rating": 4.10277,
  "ratingCount": 1551,
  "style": "Sour - Fruited Gose",
  "untappdBrewery": "Salikatt Bryggeri",
  "untappdName": "Red Summer Smoothie"
 },
 {
  "code": "13195802",
  "name": "Monkey Brew Wizard",
  "selection": "tu",
  "price": 79.9,
  "link": "https://www.vinmonopolet.no/_/p/13195802",
  "category": "Surøl",
  "country": "Norge",
  "volume": 440,
  "abv": 7,
  "bid": 4344708,
  "rating": 0,
  "ratingCount": 8,
  "style": "Sour - Fruited Gose",
  "untappdBrewery": "Monkey Brew",
  "untappdName": "Wizard"
 },
 {
  "code": "13193502",
  "name": "Marlobobo's Megabear Plz Guaway Smoothie Sour",
  "selection": "tu",
  "price": 96.9,
  "link": "https://www.vinmonopolet.no/_/p/13193502",
  "category": "Surøl",
  "country": "Norge",
  "volume": 440,
  "abv": 5.5,
  "bid": 3976733,
  "rating": 4.19773,
  "ratingCount": 44,
  "style": "Sour - Fruited",
  "untappdBrewery": "Marlobobo's Megabear",
  "untappdName": "PLZ GUAWAY"
 },
 {
  "code": "11969902",
  "name": "Elø Tropical Punch Mango & Guava Gose",
  "selection": "tu",
  "price": 63.5,
  "link": "https://www.vinmonopolet.no/_/p/11969902",
  "category": "Surøl",
  "country": "Norge",
  "volume": 330,
  "abv": 5.5,
  "bid": 3759918,
  "rating": 3.69075,
  "ratingCount": 703,
  "style": "Sour - Fruited Gose",
  "untappdBrewery": "En Liten Øl",
  "untappdName": "Tropical Punch - Mango & Guava Gose"
 },
 {
  "code": "13095802",
  "name": "Maltgarden Matching Colours Pastry Sour",
  "selection": "tu",
  "price": 75,
  "link": "https://www.vinmonopolet.no/_/p/13095802",
  "category": "Surøl",
  "country": "Polen",
  "volume": 500,
  "abv": 5.5,
  "bid": 4243134,
  "rating": 3.76844,
  "ratingCount": 141,
  "style": "Sour - Fruited",
  "untappdBrewery": "Maltgarden",
  "untappdName": "Matching Colours"
 },
 {
  "code": "13096002",
  "name": "Maltgarden First Level Poetry Pastry Sour",
  "selection": "tu",
  "price": 75,
  "link": "https://www.vinmonopolet.no/_/p/13096002",
  "category": "Surøl",
  "country": "Polen",
  "volume": 500,
  "abv": 5.5,
  "bid": 4234947,
  "rating": 3.77072,
  "ratingCount": 502,
  "style": "Sour - Fruited",
  "untappdBrewery": "Maltgarden",
  "untappdName": "First Level Poetry"
 },
 {
  "code": "13231202",
  "name": "Funky Fluid Gelato Peach Melba",
  "selection": "tu",
  "price": 72.6,
  "link": "https://www.vinmonopolet.no/_/p/13231202",
  "category": "Surøl",
  "country": "Polen",
  "volume": 500,
  "abv": 5.5,
  "bid": 4287010,
  "rating": 4.0029,
  "ratingCount": 241,
  "style": "Sour - Fruited",
  "untappdBrewery": "Funky Fluid",
  "untappdName": "Gelato: Peche Melba"
 },
 {
  "code": "13231302",
  "name": "Funky Fluid x Lervig Gelato Bløtkake",
  "selection": "tu",
  "price": 69.3,
  "link": "https://www.vinmonopolet.no/_/p/13231302",
  "category": "Surøl",
  "country": "Polen",
  "volume": 330,
  "abv": 5.5,
  "bid": 4328504,
  "rating": 4.08915,
  "ratingCount": 212,
  "style": "Sour - Fruited",
  "untappdBrewery": "Funky Fluid",
  "untappdName": "Gelato: Blotkake"
 },
 {
  "code": "13176102",
  "name": "Vault City Guava Kiwi Melon Mango Sour",
  "selection": "tu",
  "price": 119.9,
  "link": "https://www.vinmonopolet.no/_/p/13176102",
  "category": "Surøl",
  "country": "Skottland",
  "volume": 375,
  "abv": 10,
  "bid": 4221108,
  "rating": 4.37839,
  "ratingCount": 1046,
  "style": "Sour - Fruited",
  "untappdBrewery": "Vault City Brewing",
  "untappdName": "Guava Kiwi Melon Mango"
 },
 {
  "code": "13176202",
  "name": "Vault City Blueberry Lemon Drizzle Sour",
  "selection": "tu",
  "price": 115.6,
  "link": "https://www.vinmonopolet.no/_/p/13176202",
  "category": "Surøl",
  "country": "Skottland",
  "volume": 375,
  "abv": 6.6,
  "bid": 4263339,
  "rating": 4.26037,
  "ratingCount": 858,
  "style": "Sour - Fruited",
  "untappdBrewery": "Vault City Brewing",
  "untappdName": "Blueberry Lemon Drizzle Sour"
 },
 {
  "code": "13176302",
  "name": "Vault City Apple Cranberry Vanilla Sour",
  "selection": "tu",
  "price": 110,
  "link": "https://www.vinmonopolet.no/_/p/13176302",
  "category": "Surøl",
  "country": "Skottland",
  "volume": 375,
  "abv": 6.6,
  "bid": 4263364,
  "rating": 4.10272,
  "ratingCount": 552,
  "style": "Sour - Fruited",
  "untappdBrewery": "Vault City Brewing",
  "untappdName": "Apple Cranberry Vanilla Sour"
 },
 {
  "code": "13244102",
  "name": "Friends Company Sommardröm Sour",
  "selection": "tu",
  "price": 80.1,
  "link": "https://www.vinmonopolet.no/_/p/13244102",
  "category": "Surøl",
  "country": "Sverige",
  "volume": 330,
  "abv": 6,
  "bid": 4314009,
  "rating": 3.84328,
  "ratingCount": 67,
  "style": "Sour - Fruited",
  "untappdBrewery": "Friends Company",
  "untappdName": "Sommardröm Sour"
 },
 {
  "code": "13242502",
  "name": "Omnipollo Bianca Peach Vanilla Protein Shake Lassi Gose",
  "selection": "tu",
  "price": 156.1,
  "link": "https://www.vinmonopolet.no/_/p/13242502",
  "category": "Surøl",
  "country": "Sverige",
  "volume": 440,
  "abv": 6,
  "bid": 4271275,
  "rating": 3.05659,
  "ratingCount": 91,
  "style": "Sour - Fruited Gose",
  "untappdBrewery": "Omnipollo",
  "untappdName": "Bianca Peach Vanilla Protein Shake"
 },
 {
  "code": "13242402",
  "name": "Omnipollo Triple Karpologi Pineapple Peach Passion Candy Sour",
  "selection": "tu",
  "price": 112.2,
  "link": "https://www.vinmonopolet.no/_/p/13242402",
  "category": "Surøl",
  "country": "Sverige",
  "volume": 330,
  "abv": 8,
  "bid": 4271127,
  "rating": 4.4164,
  "ratingCount": 372,
  "style": "Sour - Fruited",
  "untappdBrewery": "Omnipollo",
  "untappdName": "Triple Karpologi"
 },
 {
  "code": "13244402",
  "name": "Omnipollo Pleroma Calamansi Lime Tangerine Crème Brûlée Sour",
  "selection": "tu",
  "price": 88.6,
  "link": "https://www.vinmonopolet.no/_/p/13244402",
  "category": "Surøl",
  "country": "Sverige",
  "volume": 330,
  "abv": 6,
  "bid": 4322876,
  "rating": 0,
  "ratingCount": 8,
  "style": "Sour - Fruited",
  "untappdBrewery": "Omnipollo",
  "untappdName": "Pleroma Calamansi Lime Tangerine Crème Brûlée Sour"
 },
 {
  "code": "13231002",
  "name": "Zichovec Sour Black Currant",
  "selection": "tu",
  "price": 81.4,
  "link": "https://www.vinmonopolet.no/_/p/13231002",
  "category": "Surøl",
  "country": "Tsjekkia",
  "volume": 500,
  "abv": 5.1,
  "bid": 4307460,
  "rating": 3.97299,
  "ratingCount": 137,
  "style": "Sour - Fruited",
  "untappdBrewery": "Rodinný pivovar Zichovec",
  "untappdName": "Sour Blackcurrant"
 }
]